<svg xmlns="http://www.w3.org/2000/svg" width="14" height="14" viewBox="0 0 14 14">
  <g id="Group_174549" data-name="Group 174549" transform="translate(-1259.373 -3295.373)">
    <g id="Ellipse_1247" data-name="Ellipse 1247" transform="translate(1259.373 3295.373)" fill="none" stroke="#a3a3a3" stroke-width="1">
      <circle cx="7" cy="7" r="7" stroke="none"/>
      <circle cx="7" cy="7" r="6.5" fill="none"/>
    </g>
    <path id="Path_69808" data-name="Path 69808" d="M-1223.869,608.6l1.926,4.854-2.382,2.631" transform="translate(2489.507 2689.758)" fill="none" stroke="#a3a3a3" stroke-linecap="round" stroke-width="1.2"/>
  </g>
</svg>
