<svg id="minus-cirlce_linear" data-name="minus-cirlce/linear" xmlns="http://www.w3.org/2000/svg" width="15.172" height="15.172" viewBox="0 0 15.172 15.172">
  <g id="vuesax_linear_minus-cirlce" data-name="vuesax/linear/minus-cirlce">
    <g id="minus-cirlce">
      <path id="Vector" d="M6.322,12.643A6.322,6.322,0,1,0,0,6.322,6.34,6.34,0,0,0,6.322,12.643Z" transform="translate(1.214 1.264)" fill="none" stroke="#fff" stroke-linecap="round" stroke-linejoin="round" stroke-width="1.5"/>
      <path id="Vector-2" data-name="Vector" d="M0,0H5.057" transform="translate(5.007 7.586)" fill="none" stroke="#fff" stroke-linecap="round" stroke-linejoin="round" stroke-width="1.5"/>
      <path id="Vector-3" data-name="Vector" d="M0,0H15.172V15.172H0Z" fill="none" opacity="0"/>
    </g>
  </g>
</svg>
