<svg id="minus-cirlce" xmlns="http://www.w3.org/2000/svg" width="27.414" height="27.414" viewBox="0 0 27.414 27.414">
  <path id="Vector" d="M11.423,22.845A11.423,11.423,0,1,0,0,11.423,11.456,11.456,0,0,0,11.423,22.845Z" transform="translate(2.193 2.285)" fill="none" stroke="#dc0943" stroke-linecap="round" stroke-linejoin="round" stroke-width="1.5"/>
  <path id="Vector-2" data-name="Vector" d="M0,0H9.138" transform="translate(9.047 13.707)" fill="none" stroke="#dc0943" stroke-linecap="round" stroke-linejoin="round" stroke-width="1.5"/>
  <path id="Vector-3" data-name="Vector" d="M0,0H27.414V27.414H0Z" fill="none" opacity="0"/>
</svg>
