<svg xmlns="http://www.w3.org/2000/svg" width="20" height="20" viewBox="0 0 20 20">
  <g id="Group_174581" data-name="Group 174581" transform="translate(-1259.848 -3295.848)">
    <g id="Ellipse_1247" data-name="Ellipse 1247" transform="translate(1259.848 3295.848)" fill="none" stroke="#dc0943" stroke-width="1">
      <circle cx="10" cy="10" r="10" stroke="none"/>
      <circle cx="10" cy="10" r="9.5" fill="none"/>
    </g>
    <path id="Path_69808" data-name="Path 69808" d="M-1223.642,608.6l2.881,7.263-3.564,3.937" transform="translate(2492.39 2691.238)" fill="none" stroke="#dc0943" stroke-linecap="round" stroke-width="1.2"/>
  </g>
</svg>
