<svg xmlns="http://www.w3.org/2000/svg" width="23.927" height="26.001" viewBox="0 0 23.927 26.001">
  <g id="Group_174358" data-name="Group 174358" transform="translate(-31.222)">
    <path id="Path_69769" data-name="Path 69769" d="M55.126,23.741a1.7,1.7,0,0,0-.08-.322c-.262-1.009-.863-2.849-1.136-3.672a1.931,1.931,0,0,0-.136-.412v0A1.954,1.954,0,0,0,53,18.475c-.02-.013-.063-.037-.12-.066-.023-.01-.046-.023-.07-.033-.661-.312-2.69-1.122-2.69-1.122-1.016-.438-2.065-.814-3.138-1.2-.193.8-2.009,6.086-2.3,6.82l-.229-4.914a3.053,3.053,0,0,0,.189-.375l.757-1.5a3.785,3.785,0,0,1-4.42.03l.744,1.468a3.052,3.052,0,0,0,.189.375l-.229,4.914c-.292-.734-2.112-6.027-2.3-6.824-1.073.382-2.122.757-3.138,1.2,0,0-2.029.814-2.69,1.122a1.708,1.708,0,0,0-.189.1,1.981,1.981,0,0,0-.774.86v0a1.933,1.933,0,0,0-.136.412c-.272.823-.873,2.66-1.136,3.672a1.757,1.757,0,0,0-.08.322,1.785,1.785,0,0,0-.023.3A1.958,1.958,0,0,0,33.181,26h1.869q4.014,0,8.029,0H53.19a1.958,1.958,0,0,0,1.959-1.959,2.221,2.221,0,0,0-.023-.3ZM48.3,6.956c0-.345.066-1.6.066-1.889A5.064,5.064,0,0,0,43.3,0h-.232A5.072,5.072,0,0,0,38,5.07c0,.289.066,1.541.066,1.889-.123.007-1.258-.266-1.136,1.092.259,2.882,1.358,2.324,1.391,2.324a7.473,7.473,0,0,0,2.2,3.553,4.974,4.974,0,0,0,2.553,1.222c.037,0,.07,0,.106,0s.07,0,.106,0a4.983,4.983,0,0,0,2.537-1.209,7.448,7.448,0,0,0,2.218-3.566c.033,0,1.132.558,1.391-2.324C49.558,6.691,48.422,6.963,48.3,6.956Z" transform="translate(0)" fill="#c6a365"/>
  </g>
</svg>
