<svg id="sticker_broken" data-name="sticker/broken" xmlns="http://www.w3.org/2000/svg" width="62" height="62" viewBox="0 0 62 62">
  <g id="vuesax_broken_sticker" data-name="vuesax/broken/sticker">
    <g id="sticker">
      <path id="Vector" d="M51.281,21.289a26.108,26.108,0,0,1,.284,6.768,8.611,8.611,0,0,1-.258,1.421A15.492,15.492,0,0,0,29.478,51.307a8.611,8.611,0,0,1-1.421.258,26.108,26.108,0,0,1-6.768-.284,25.848,25.848,0,1,1,24-42.47" transform="translate(5.087 5.165)" fill="none" stroke="#c6a365" stroke-linecap="round" stroke-linejoin="round" stroke-width="5"/>
      <path id="Vector-2" data-name="Vector" d="M25.472,3.642A7.714,7.714,0,0,1,23.482,7L7,23.483a7.714,7.714,0,0,1-3.358,1.989A15.492,15.492,0,0,1,25.472,3.642Z" transform="translate(30.923 31)" fill="none" stroke="#c6a365" stroke-linecap="round" stroke-linejoin="round" stroke-width="5"/>
      <path id="Vector-3" data-name="Vector" d="M0,0H62V62H0Z" fill="none" opacity="0"/>
    </g>
  </g>
</svg>
