<svg id="Group_174399" data-name="Group 174399" xmlns="http://www.w3.org/2000/svg" width="14.519" height="14.519" viewBox="0 0 14.519 14.519">
  <path id="Path_69777" data-name="Path 69777" d="M2.978,5.161A1.418,1.418,0,1,1,4.4,3.743,1.42,1.42,0,0,1,2.978,5.161ZM4.719,5.2a2.265,2.265,0,0,1-3.483,0A1.562,1.562,0,0,0,0,6.721V8.99a1.278,1.278,0,0,0,1.134,1.268v3.269a.994.994,0,0,0,.993.993h1.7a.994.994,0,0,0,.993-.993V10.258A1.278,1.278,0,0,0,5.955,8.99V6.721A1.562,1.562,0,0,0,4.719,5.2ZM7.26,4.537a.424.424,0,0,1-.3-.125l-1.72-1.72A1.577,1.577,0,0,1,6.355,0,1.566,1.566,0,0,1,7.26.285,1.578,1.578,0,0,1,9.281,2.693l-1.72,1.72A.424.424,0,0,1,7.26,4.537Zm7.254,6.084L13.86,6.7a1.838,1.838,0,0,0-.826-1.252,2.262,2.262,0,0,1-2.986,0A1.838,1.838,0,0,0,9.223,6.7l-.653,3.92a.425.425,0,0,0,.42.5h.743l.251,3.013a.425.425,0,0,0,.424.39h2.269a.425.425,0,0,0,.424-.39l.251-3.013h.743a.425.425,0,0,0,.42-.5Zm-2.972-5.46A1.418,1.418,0,1,1,12.96,3.743,1.42,1.42,0,0,1,11.542,5.161Z" transform="translate(0 0)" fill="#dc0943"/>
</svg>
