<svg xmlns="http://www.w3.org/2000/svg" xmlns:xlink="http://www.w3.org/1999/xlink" width="33.941" height="33.941" viewBox="0 0 33.941 33.941">
  <defs>
    <clipPath id="clip-path">
      <rect width="33.941" height="33.941" fill="none"/>
    </clipPath>
    <clipPath id="clip-path-2">
      <rect width="24" height="24" fill="none"/>
    </clipPath>
  </defs>
  <g id="Repeat_Grid_2" data-name="Repeat Grid 2" clip-path="url(#clip-path)">
    <g transform="translate(7711.971 -3332)">
      <g id="vuesax_linear_send-2" data-name="vuesax/linear/send-2" transform="translate(-7678.03 3348.97) rotate(135)">
        <g id="send-2" clip-path="url(#clip-path-2)">
          <g id="send-2-2" data-name="send-2" transform="translate(0 0)">
            <path id="Vector" d="M13.479,3.2,4.989.373c-3.81-1.27-5.88.81-4.62,4.62l2.83,8.49c1.9,5.71,5.02,5.71,6.92,0l.84-2.52,2.52-.84C19.189,8.223,19.189,5.113,13.479,3.2Z" transform="translate(3.121 3.117)" fill="none" stroke="#fff" stroke-linecap="round" stroke-linejoin="round" stroke-width="1.5"/>
            <path id="Vector-2" data-name="Vector" d="M3.58,3.59,0,0" transform="translate(10.31 10.06)" fill="none" stroke="#fff" stroke-linecap="round" stroke-linejoin="round" stroke-width="1.5"/>
            <path id="Vector-3" data-name="Vector" d="M24,0H0V24H24Z" fill="none" opacity="0"/>
          </g>
        </g>
      </g>
    </g>
  </g>
</svg>
