<svg xmlns="http://www.w3.org/2000/svg" xmlns:xlink="http://www.w3.org/1999/xlink" width="134.181" height="189.051" viewBox="0 0 134.181 189.051">
  <defs>
    <clipPath id="clip-path">
      <rect width="134.181" height="189.051" fill="none"/>
    </clipPath>
  </defs>
  <g id="زيجة" clip-path="url(#clip-path)">
    <g id="زيجة-2" data-name="زيجة" transform="translate(-0.01)">
      <g id="Group_174356" data-name="Group 174356" transform="translate(4.069)">
        <g id="Group_174355" data-name="Group 174355" transform="translate(0 11.682)">
          <path id="Path_69760" data-name="Path 69760" d="M106.8,138.465c.319-.171.642-.347.955-.524-.048.807-.084,1.611-.1,2.415l.252,1.207-.63.319a58.1,58.1,0,0,1-13.007,4.787l-1.039.246-.1-1.067c-.07-.734-.134-1.468-.2-2.2.311-.064.608-.14.913-.21a0,0,0,0,1,0,0c-.566-6.538-1.022-13.085-1.81-19.6-.224-1.092-.79-10.875-.9-11.83a6.251,6.251,0,0,1-3.356-1.462c-.134-4.726-.008-9.485.291-14.57-4.238,2.289-8.412,4.09-13.135,4.236.331,1.95,1.852,7.83,1.908,8.085,1.728,8.127,1.8,16.368,1.742,24.624-.028,4.012-.157,8.017-.275,12.032h.036c.3.014.594.022.9.034-.028.77-.048,1.541-.064,2.311l-.022.947-.947-.042A57.983,57.983,0,0,1,37.6,129.212l-.5-.549.426-.613q.744-1.067,1.51-2.121c.2.238.409.473.628.712a207.96,207.96,0,0,1,19.422-23.212C62.529,99.863,63.1,96.4,61.8,92.086c-.157-.515-.849-3.188-1.2-4.407-2.336-7.337-2.675-14.39,2.883-20.814.241-.277.493-.557.756-.832a1.381,1.381,0,0,1-.154.008l-.14.008c-.4.028-.784.078-1.151.14-1.49.238-2.726.585-3.975-.148a29.931,29.931,0,0,0-2.734,7.281c-1.944,6.88-2.981,14-5.227,20.8-2.135,6.454-4.852,12.592-9.788,17.486a22.015,22.015,0,0,1-8.107,5.8c-.289.129-.577.261-.868.387a3.271,3.271,0,0,1,.062-1.824c-.129-.241-.261-.482-.387-.728a4.371,4.371,0,0,0-2.109-.63c-.305-.062-.6-.129-.9-.21a11.975,11.975,0,0,1-3.121-1.291,10.682,10.682,0,0,1-1.815-1.364c.426.014.846.034,1.272.036a13.683,13.683,0,0,0,2.443-.148c.375-.062.776-.14,1.193-.247-.51-.154-1.011-.319-1.5-.507a20.478,20.478,0,0,1-2.981-1.378c-3.589-2.014-5.555-5.306-7.917-8.827a24.368,24.368,0,0,1-1.838-3.53,50.073,50.073,0,0,0,4.678,1.843,4.426,4.426,0,0,0,1.017.12A35.184,35.184,0,0,0,24,99.061c.482-.042.961-.106,1.443-.2.289-.056.571-.112.849-.176a18.58,18.58,0,0,0,11.166-7.67c3.191-4.44,6.143-9.032,9.216-13.55a73.476,73.476,0,0,1,10.41-12.606c-2.622-2.149-2.336-5.754.557-7.718.627-.762,2.1-.591,2.182-1.958.664-4.768,3.079-7.029,7.272-6.8.084-.036,2.754.3,2.841.361a7.046,7.046,0,0,1,5.67,7.054,4.81,4.81,0,0,0,1.574,3.835c-1.064,1.137-.493,2.6-.835,3.9-.636,2.4-1.093,2.745-3.49,2.118-.319-.084-.63-.213-1.053-.359a8.084,8.084,0,0,0-.748,5.841,20.132,20.132,0,0,0,4.429,8.1c2.689,2.953,2.8,4.16.86,7.527a17.392,17.392,0,0,0-2.177,7.048c.185.1.319.238.4.21a35.375,35.375,0,0,0,11.25-6.258c3.149-2.457,4.017-5.869,4.435-9.589a57.617,57.617,0,0,1,1.188-5.958,21.567,21.567,0,0,1,5.642-10.539c-.143-.162-.224-.331-.291-.325-3.8.359-3.877.367-4.278-4.026a2.841,2.841,0,0,0-1.364-2.611C92.506,53.2,93.318,51.7,92.73,49.6c-.311-1.1.538-2.317,1.263-3.4-.311-.585-.616-1.16-1.022-1.927,3.939-2.311,7.889-3.544,12.3-1.6a3.827,3.827,0,0,1,1.846,1.28,4.128,4.128,0,0,0,.457.482c2.216,1.958,2.6,4.488,1.983,7.264a13.519,13.519,0,0,1-3.138,6.037,4.184,4.184,0,0,0-1.347,2.577,1.545,1.545,0,0,1,1.468,2.048,1.85,1.85,0,0,0,.614,1.608,13.437,13.437,0,0,1,2.989,8.614,107.513,107.513,0,0,1-.947,18.578c-.417,3.115,4.387,21.469,4.818,25.05-2.048.479-3.983.933-6.1,1.426C108.58,124.666,107.146,131.537,106.8,138.465Z" transform="translate(-14.5 -41.702)" fill="#fff"/>
          <path id="Path_69761" data-name="Path 69761" d="M188.168,124.79l-1.616,1.7a1.033,1.033,0,0,1-.742.325.939.939,0,0,1-.524-.154c.241-.277.493-.557.756-.832a1.388,1.388,0,0,1-.154.008l-.14.008c-.4.028-.784.078-1.151.14l-.9-.933,2.09-.14Z" transform="translate(-136.301 -101.514)" fill="#fff"/>
        </g>
        <path id="Path_69762" data-name="Path 69762" d="M97.306,0a59.829,59.829,0,0,0-59.22,68.179c.157.006.311.006.468.006.714,0,1.342-.022,1.922-.076.454-.042.9-.1,1.361-.185.291-.056.585-.115.874-.185a55.167,55.167,0,1,1,109.762-7.931,54.953,54.953,0,0,1-28.156,48.113c-.317.176-.636.353-.955.524s-.664.353-1,.524a54.932,54.932,0,0,1-11.948,4.44c-.106.028-.219.05-.325.078-.2.048-.389.092-.588.134a55.606,55.606,0,0,1-12.189,1.35c-.5,0-1-.008-1.5-.022-.3-.008-.6-.02-.9-.034h-.036A54.714,54.714,0,0,1,56.557,96.988c-.115-.126-.233-.255-.339-.381-.219-.238-.423-.473-.628-.712A54.136,54.136,0,0,1,50,88.183c-.333.154-.658.3-.975.431L48.145,89l-.353-.9a3.054,3.054,0,0,1-.064-1.913c.02-.078.036-.157.05-.232a2.188,2.188,0,0,0-1.2-.381c-.182-.022-.359-.05-.535-.09-.317-.062-.63-.134-.961-.224a13.007,13.007,0,0,1-2.283-.818c.14.305.277.613.423.916a59.853,59.853,0,0,0,51.486,34.2c.854.042,1.728.062,2.6.062a60.314,60.314,0,0,0,13.847-1.611A59.816,59.816,0,0,0,97.306,0ZM48.711,85.939a3.273,3.273,0,0,0-.062,1.824c.291-.126.58-.255.868-.387C49.24,86.906,48.971,86.424,48.711,85.939Zm-1.294-2.563C47,82.494,46.6,81.6,46.232,80.692c-.092-.227-.185-.454-.277-.692a54.826,54.826,0,0,1-3.1-11.34c-.277.064-.563.12-.849.176-.482.087-.961.154-1.443.2a23.222,23.222,0,0,1-2.336.076c.008.1.028.2.042.291a59.074,59.074,0,0,0,2.549,10.071A20.62,20.62,0,0,0,43.8,80.849c.482.185.983.353,1.5.507-.417.106-.818.185-1.193.247a13.68,13.68,0,0,1-2.443.148c.1.247.2.482.291.728.078.2.162.4.252.6a12.032,12.032,0,0,0,3.121,1.291c.3.078.594.148.9.21a4.4,4.4,0,0,1,2.109.63C48.011,84.609,47.708,84,47.417,83.376Z" transform="translate(-31.057)" fill="#fff"/>
      </g>
      <g id="Group_174357" data-name="Group 174357" transform="translate(0.01 124.405)">
        <path id="Path_69763" data-name="Path 69763" d="M42.767,494.035H34.646c-5.841,0-10.606-3.961-12.149-9.934-2.35,3.356-5.236,5.034-8.592,5.034C5.313,489.135.01,482.692.01,473.361c0-10.071,5.3-16.312,13.895-16.312H30.486v21.279c0,5.236,2.485,8.057,7.519,8.057H42.77v7.651ZM22.7,472.622v-9.735H15.916c-5.236,0-8.457,4.163-8.457,10.4,0,5.168,2.885,9.6,7.384,9.6C19.743,482.891,22.7,478.325,22.7,472.622Zm-5.5-21.013H9.806V444.09h7.384v7.519Zm12.684,0H22.5V444.09h7.384v7.519Z" transform="translate(-0.01 -444.09)" fill="#fff"/>
        <path id="Path_69764" data-name="Path 69764" d="M199.593,544.066h-53.9v-7.653h38.8A16.581,16.581,0,0,0,181,525.739c-2.751-3.423-6.645-5.1-11.547-5.1a14.7,14.7,0,0,0-5.639,1.275,16.4,16.4,0,0,0-6.042,4.23c-.74-1.409-1.947-3.356-3.625-5.908a25.288,25.288,0,0,1,7.183-4.765,22.157,22.157,0,0,1,8.861-1.88,22.913,22.913,0,0,1,12.217,3.221c6.11,3.759,9.466,10.27,10.068,19.6h7.115v7.653Zm-25.845,14.7h-7.384v-7.519h7.384Z" transform="translate(-104.88 -494.121)" fill="#fff"/>
        <path id="Path_69765" data-name="Path 69765" d="M336.144,558.76H328.76v-7.519h7.384Zm12.889-26.853c0,8.124-3.759,12.149-11.211,12.149H329.9V536.4h6.311c2.485,0,4.028-.739,4.765-2.216a14.609,14.609,0,0,0,.538-4.833V513.58h7.519Zm-.2,26.853h-7.384v-7.519h7.384Z" transform="translate(-236.666 -494.114)" fill="#fff"/>
        <path id="Path_69766" data-name="Path 69766" d="M435.7,478.566v24.5c0,12.082-5.3,17.119-16.85,17.119v-6.443c6.244,0,9.331-3.087,9.331-9.533V478.568H435.7Zm-.067-6.174h-7.384V464.94h7.384Z" transform="translate(-301.519 -459.099)" fill="#fff"/>
      </g>
    </g>
  </g>
</svg>
