<svg xmlns="http://www.w3.org/2000/svg" width="40.342" height="56.839" viewBox="0 0 40.342 56.839">
  <g id="زيجة" transform="translate(-0.01)">
    <g id="Group_174356" data-name="Group 174356" transform="translate(1.23)">
      <g id="Group_174355" data-name="Group 174355" transform="translate(0 3.512)">
        <path id="Path_69760" data-name="Path 69760" d="M42.251,70.794c.1-.051.193-.1.287-.158-.014.243-.025.484-.029.726l.076.363-.189.1a17.469,17.469,0,0,1-3.91,1.439l-.312.074-.029-.321c-.021-.221-.04-.441-.06-.663.093-.019.183-.042.275-.063h0c-.17-1.966-.307-3.934-.544-5.892-.067-.328-.238-3.27-.271-3.557a1.879,1.879,0,0,1-1.009-.44c-.04-1.421,0-2.852.088-4.38a8.846,8.846,0,0,1-3.949,1.273c.1.586.557,2.354.574,2.431a34.182,34.182,0,0,1,.524,7.4c-.008,1.206-.047,2.41-.083,3.617H33.7l.27.01c-.008.232-.014.463-.019.695l-.007.285-.285-.013a17.433,17.433,0,0,1-12.212-5.708l-.151-.165.128-.184q.224-.321.454-.638c.061.072.123.142.189.214A62.524,62.524,0,0,1,27.9,60.26a3.115,3.115,0,0,0,.817-3.41c-.047-.155-.255-.958-.36-1.325-.7-2.206-.8-4.327.867-6.258.072-.083.148-.168.227-.25l-.046,0-.042,0c-.121.008-.236.024-.346.042a1.671,1.671,0,0,1-1.2-.045A9,9,0,0,0,27,51.209c-.585,2.069-.9,4.209-1.572,6.254a12.731,12.731,0,0,1-2.943,5.257,6.619,6.619,0,0,1-2.437,1.743c-.087.039-.173.078-.261.116a.983.983,0,0,1,.019-.548c-.039-.072-.078-.145-.116-.219a1.314,1.314,0,0,0-.634-.189c-.092-.019-.181-.039-.271-.063a3.6,3.6,0,0,1-.938-.388,3.212,3.212,0,0,1-.546-.41c.128,0,.254.01.382.011a4.113,4.113,0,0,0,.734-.045c.113-.019.233-.042.359-.074-.153-.046-.3-.1-.45-.152a6.157,6.157,0,0,1-.9-.414,7.445,7.445,0,0,1-2.38-2.654,7.326,7.326,0,0,1-.553-1.061,15.055,15.055,0,0,0,1.407.554,1.331,1.331,0,0,0,.306.036,10.578,10.578,0,0,0,1.145-.014c.145-.013.289-.032.434-.059.087-.017.172-.034.255-.053A5.586,5.586,0,0,0,21.4,56.529c.959-1.335,1.847-2.715,2.771-4.074a22.091,22.091,0,0,1,3.13-3.79,1.4,1.4,0,0,1,.168-2.32c.189-.229.631-.178.656-.589.2-1.433.926-2.113,2.186-2.045.025-.011.828.091.854.109a2.118,2.118,0,0,1,1.7,2.121,1.446,1.446,0,0,0,.473,1.153c-.32.342-.148.781-.251,1.172-.191.72-.328.825-1.049.637-.1-.025-.19-.064-.317-.108a2.431,2.431,0,0,0-.225,1.756,6.053,6.053,0,0,0,1.332,2.435c.809.888.841,1.251.259,2.263a5.229,5.229,0,0,0-.654,2.119c.056.03.1.072.12.063a10.635,10.635,0,0,0,3.382-1.882,3.887,3.887,0,0,0,1.333-2.883,17.322,17.322,0,0,1,.357-1.791,6.484,6.484,0,0,1,1.7-3.168c-.043-.049-.067-.1-.088-.1-1.142.108-1.166.11-1.286-1.21a.854.854,0,0,0-.41-.785,1.53,1.53,0,0,0,.475-1.539c-.093-.332.162-.7.38-1.023l-.307-.579a3.838,3.838,0,0,1,3.7-.48,1.151,1.151,0,0,1,.555.385,1.241,1.241,0,0,0,.137.145,2.094,2.094,0,0,1,.6,2.184,4.064,4.064,0,0,1-.943,1.815,1.258,1.258,0,0,0-.405.775.465.465,0,0,1,.441.616.556.556,0,0,0,.184.483,4.04,4.04,0,0,1,.9,2.59,32.324,32.324,0,0,1-.285,5.586c-.125.937,1.319,6.455,1.449,7.531l-1.834.429A42.893,42.893,0,0,1,42.251,70.794Z" transform="translate(-14.5 -41.702)" fill="#c6a365"/>
        <path id="Path_69761" data-name="Path 69761" d="M185.043,124.79l-.486.512a.311.311,0,0,1-.223.1.282.282,0,0,1-.158-.046c.072-.083.148-.168.227-.25l-.046,0-.042,0c-.121.008-.236.024-.346.042l-.27-.28.628-.042Z" transform="translate(-169.449 -117.792)" fill="#c6a365"/>
      </g>
      <path id="Path_69762" data-name="Path 69762" d="M55.481,0a17.988,17.988,0,0,0-17.8,20.5c.047,0,.093,0,.141,0,.215,0,.4-.007.578-.023.136-.013.271-.03.409-.056.088-.017.176-.035.263-.056a16.586,16.586,0,1,1,33-2.384A16.522,16.522,0,0,1,63.6,32.447c-.1.053-.191.106-.287.157s-.2.106-.3.157A16.515,16.515,0,0,1,59.421,34.1l-.1.024c-.059.014-.117.028-.177.04a16.718,16.718,0,0,1-3.665.406c-.151,0-.3,0-.451-.007l-.27-.01h-.011A16.45,16.45,0,0,1,43.23,29.16c-.035-.038-.07-.077-.1-.115-.066-.072-.127-.142-.189-.214a16.276,16.276,0,0,1-1.682-2.319c-.1.046-.2.089-.293.13l-.264.115-.106-.27a.918.918,0,0,1-.019-.575c.006-.024.011-.047.015-.07a.658.658,0,0,0-.36-.115c-.055-.007-.108-.015-.161-.027-.1-.019-.19-.04-.289-.067a3.911,3.911,0,0,1-.686-.246c.042.092.083.184.127.275A17.995,17.995,0,0,0,54.7,35.945c.257.013.52.019.782.019a18.133,18.133,0,0,0,4.163-.484A17.984,17.984,0,0,0,55.481,0ZM40.871,25.838a.984.984,0,0,0-.019.548c.088-.038.174-.077.261-.116C41.03,26.128,40.949,25.984,40.871,25.838Zm-.389-.771c-.125-.265-.244-.533-.356-.807-.028-.068-.056-.136-.083-.208a16.484,16.484,0,0,1-.932-3.409c-.083.019-.169.036-.255.053-.145.026-.289.046-.434.059a6.982,6.982,0,0,1-.7.023c0,.029.008.059.013.088a17.761,17.761,0,0,0,.766,3.028,6.2,6.2,0,0,0,.9.414c.145.056.3.106.45.152-.125.032-.246.056-.359.074a4.113,4.113,0,0,1-.734.045c.029.074.059.145.088.219s.049.12.076.18a3.617,3.617,0,0,0,.938.388c.089.024.179.045.271.063a1.323,1.323,0,0,1,.634.19C40.66,25.438,40.569,25.253,40.481,25.067Z" transform="translate(-35.563)" fill="#c6a365"/>
    </g>
    <g id="Group_174357" data-name="Group 174357" transform="translate(0.01 37.403)">
      <path id="Path_69763" data-name="Path 69763" d="M12.865,459.106H10.423a3.774,3.774,0,0,1-3.653-2.987,3.1,3.1,0,0,1-2.583,1.513C1.6,457.633.01,455.7.01,452.89c0-3.028,1.594-4.9,4.177-4.9H9.173v6.4c0,1.574.747,2.422,2.261,2.422h1.433v2.3ZM6.83,452.668v-2.927H4.792c-1.574,0-2.543,1.252-2.543,3.128,0,1.554.867,2.886,2.22,2.886C5.943,455.756,6.83,454.383,6.83,452.668ZM5.176,446.35H2.955V444.09h2.22v2.261Zm3.814,0H6.771V444.09h2.22v2.261Z" transform="translate(-0.01 -444.09)" fill="#c8a364"/>
      <path id="Path_69764" data-name="Path 69764" d="M161.9,522.753H145.69v-2.3h11.666a4.985,4.985,0,0,0-1.049-3.209,4.213,4.213,0,0,0-3.472-1.534,4.42,4.42,0,0,0-1.7.383,4.931,4.931,0,0,0-1.817,1.272c-.222-.424-.585-1.009-1.09-1.776a7.6,7.6,0,0,1,2.159-1.433,6.661,6.661,0,0,1,2.664-.565,6.889,6.889,0,0,1,3.673.969c1.837,1.13,2.846,3.088,3.027,5.893H161.9v2.3Zm-7.77,4.42h-2.22v-2.26h2.22Z" transform="translate(-133.42 -507.736)" fill="#c8a364"/>
      <path id="Path_69765" data-name="Path 69765" d="M330.98,527.163h-2.22V524.9h2.22Zm3.875-8.074c0,2.442-1.13,3.653-3.371,3.653H329.1v-2.3H331a1.429,1.429,0,0,0,1.433-.666,4.392,4.392,0,0,0,.162-1.453V513.58h2.261Zm-.061,8.074h-2.22V524.9h2.22Z" transform="translate(-301.072 -507.727)" fill="#c8a364"/>
      <path id="Path_69766" data-name="Path 69766" d="M423.916,469.037V476.4c0,3.633-1.594,5.147-5.066,5.147v-1.937c1.877,0,2.805-.928,2.805-2.866v-7.71h2.261Zm-.02-1.856h-2.22v-2.24h2.22Z" transform="translate(-383.574 -463.184)" fill="#c8a364"/>
    </g>
  </g>
</svg>
