<svg id="clipboard-tick_broken" data-name="clipboard-tick/broken" xmlns="http://www.w3.org/2000/svg" width="15.548" height="15.548" viewBox="0 0 15.548 15.548">
  <g id="vuesax_broken_clipboard-tick" data-name="vuesax/broken/clipboard-tick">
    <g id="clipboard-tick">
      <path id="Vector" d="M0,1.62l.972.972L3.563,0" transform="translate(6.031 7.904)" fill="none" stroke="#a3a3a3" stroke-linecap="round" stroke-linejoin="round" stroke-width="1.2"/>
      <path id="Vector-2" data-name="Vector" d="M1.918,0H1.3C.648,0,0,0,0,1.3s.648,1.3,1.3,1.3H3.887c1.3,0,1.3-.648,1.3-1.3,0-1.3-.648-1.3-1.3-1.3" transform="translate(5.183 1.296)" fill="none" stroke="#a3a3a3" stroke-linecap="round" stroke-linejoin="round" stroke-width="1.2"/>
      <path id="Vector-3" data-name="Vector" d="M0,3.874C0,.92,1.082.117,3.239,0" transform="translate(1.944 2.604)" fill="none" stroke="#a3a3a3" stroke-linecap="round" stroke-linejoin="round" stroke-width="1.2"/>
      <path id="Vector-4" data-name="Vector" d="M8.422,0c2.157.117,3.239.913,3.239,3.874V7.761c0,2.591-.648,3.887-3.887,3.887H3.887C.648,11.648,0,10.353,0,7.761V6.407" transform="translate(1.944 2.604)" fill="none" stroke="#a3a3a3" stroke-linecap="round" stroke-linejoin="round" stroke-width="1.2"/>
      <path id="Vector-5" data-name="Vector" d="M0,0H15.548V15.548H0Z" fill="none" opacity="0"/>
    </g>
  </g>
</svg>
