<svg id="minus-cirlce_linear" data-name="minus-cirlce/linear" xmlns="http://www.w3.org/2000/svg" width="17.366" height="17.366" viewBox="0 0 17.366 17.366">
  <g id="vuesax_linear_minus-cirlce" data-name="vuesax/linear/minus-cirlce">
    <g id="minus-cirlce">
      <path id="Vector" d="M7.236,14.472A7.236,7.236,0,1,0,0,7.236,7.257,7.257,0,0,0,7.236,14.472Z" transform="translate(1.389 1.447)" fill="none" stroke="#dc0943" stroke-linecap="round" stroke-linejoin="round" stroke-width="1.2"/>
      <path id="Vector-2" data-name="Vector" d="M0,0H5.789" transform="translate(5.731 8.683)" fill="none" stroke="#dc0943" stroke-linecap="round" stroke-linejoin="round" stroke-width="1.2"/>
      <path id="Vector-3" data-name="Vector" d="M0,0H17.366V17.366H0Z" fill="none" opacity="0"/>
    </g>
  </g>
</svg>
